{
  "name": "Hashtag",
  "idInjection": false,
  "mysql": {
    "schema": "htd",
    "table": "hashtag"
  },
  "properties": {
    "hashtagId": {
      "type": "Number",
      "id": true,
      "required": true,
      "length": null,
      "precision": 10,
      "scale": 0,
      "mysql": {
        "columnName": "hashtag_id",
        "dataType": "int",
        "dataLength": null,
        "dataPrecision": 10,
        "dataScale": 0,
        "nullable": "N"
      }
    },
    "hashtag": {
      "type": "String",
      "required": true,
      "length": 244,
      "precision": null,
      "scale": null,
      "mysql": {
        "columnName": "hashtag",
        "dataType": "varchar",
        "dataLength": 244,
        "dataPrecision": null,
        "dataScale": null,
        "nullable": "N"
      }
    },
    "createdDate": {
      "type": "Date",
      "required": false,
      "length": null,
      "precision": null,
      "scale": null,
      "mysql": {
        "columnName": "created_date",
        "dataType": "timestamp",
        "dataLength": null,
        "dataPrecision": null,
        "dataScale": null,
        "nullable": "Y"
      }
    },
    "ownerFirstName": {
      "type": "String",
      "required": false,
      "length": 255,
      "precision": null,
      "scale": null,
      "mysql": {
        "columnName": "owner_first_name",
        "dataType": "varchar",
        "dataLength": 255,
        "dataPrecision": null,
        "dataScale": null,
        "nullable": "Y"
      }
    },
    "ownerLastName": {
      "type": "String",
      "required": false,
      "length": 255,
      "precision": null,
      "scale": null,
      "mysql": {
        "columnName": "owner_last_name",
        "dataType": "varchar",
        "dataLength": 255,
        "dataPrecision": null,
        "dataScale": null,
        "nullable": "Y"
      }
    },
    "password": {
      "type": "String",
      "required": false,
      "length": 255,
      "precision": null,
      "scale": null,
      "mysql": {
        "columnName": "password",
        "dataType": "varchar",
        "dataLength": 255,
        "dataPrecision": null,
        "dataScale": null,
        "nullable": "Y"
      }
    },
    "profilePicture": {
      "type": "Binary",
      "required": false,
      "length": 4294967295,
      "precision": null,
      "scale": null,
      "mysql": {
        "columnName": "profile_picture",
        "dataType": "longblob",
        "dataLength": 4294967295,
        "dataPrecision": null,
        "dataScale": null,
        "nullable": "Y"
      }
    },
    "phoneNum": {
      "type": "String",
      "required": false,
      "length": 255,
      "precision": null,
      "scale": null,
      "mysql": {
        "columnName": "phone_num",
        "dataType": "varchar",
        "dataLength": 255,
        "dataPrecision": null,
        "dataScale": null,
        "nullable": "Y"
      }
    },
    "gcmId": {
      "type": "String",
      "required": false,
      "length": 42949,
      "precision": null,
      "scale": null,
      "mysql": {
        "columnName": "gcm_id",
        "dataType": "longtext",
        "dataPrecision": null,
        "dataScale": null,
        "nullable": "Y"
      }
    }
  },
  "validations": [],
  "relations": {},
  "acls": [],
  "methods": []
}
